// Jest Snapshot v1, https://goo.gl/fbAQLP

exports[`<CartCount /> matches the snapshot 1`] = `
<CartCount__AnimationStyles>
  <TransitionGroup
    childFactory={[Function]}
    component="div"
  >
    <CSSTransition
      className="count"
      classNames="count"
      key="10"
      timeout={
        Object {
          "enter": 400,
          "exit": 400,
        }
      }
      unmountOnExit={true}
    >
      <CartCount__Dot>
        10
      </CartCount__Dot>
    </CSSTransition>
  </TransitionGroup>
</CartCount__AnimationStyles>
`;

exports[`<CartCount /> update via props 1`] = `
<CartCount__AnimationStyles>
  <TransitionGroup
    childFactory={[Function]}
    component="div"
  >
    <CSSTransition
      className="count"
      classNames="count"
      key="50"
      timeout={
        Object {
          "enter": 400,
          "exit": 400,
        }
      }
      unmountOnExit={true}
    >
      <CartCount__Dot>
        50
      </CartCount__Dot>
    </CSSTransition>
  </TransitionGroup>
</CartCount__AnimationStyles>
`;

exports[`<CartCount /> update via props 2`] = `
<CartCount__AnimationStyles>
  <TransitionGroup
    childFactory={[Function]}
    component="div"
  >
    <CSSTransition
      className="count"
      classNames="count"
      key="60"
      timeout={
        Object {
          "enter": 400,
          "exit": 400,
        }
      }
      unmountOnExit={true}
    >
      <CartCount__Dot>
        60
      </CartCount__Dot>
    </CSSTransition>
  </TransitionGroup>
</CartCount__AnimationStyles>
`;
